# Blender v2.69 (sub 0) OBJ File: ''
# www.blender.org
o Cube
v 1.000000 -1.000000 -1.000000
v 1.000000 -1.000000 1.000000
v -1.000000 -1.000000 1.000000
v -1.000000 -1.000000 -1.000000
v 1.000000 1.000000 -0.999999
v 0.999999 1.000000 1.000001
v -1.000000 1.000000 1.000000
v -1.000000 1.000000 -1.000000
vt 0.000000 0.000000
vt 1.000000 0.000000
vt 0.000000 1.000000
vt 1.000000 1.000000
s off
f 1/1 2/2 4/3
f 5/1 8/2 6/3
f 1/1 5/2 2/3
f 2/1 6/2 3/3
f 3/1 7/2 4/3
f 5/1 1/2 8/3
f 2/2 3/4 4/3
f 8/2 7/4 6/3
f 5/2 6/4 2/3
f 6/2 7/4 3/3
f 7/2 8/4 4/3
f 1/2 4/4 8/3
